{
  "migIndex": 1,
  "data": [
    {
      "path": "assets/fonts/PermanentMarker-Regular.ttf",
      "sha1": "bc40bfbc7eb7715af82b136429848a3c7a83a2b3"
    },
    {
      "path": "assets/fonts/Poppins-Bold.ttf",
      "sha1": "875cf0cecd647bcf22e79d633d868c1b1ec98dfa"
    },
    {
      "path": "assets/fonts/Poppins-Medium.ttf",
      "sha1": "283f21b44efbdbf276ba802be2d949a36bbc4233"
    },
    {
      "path": "assets/fonts/Poppins-Regular.ttf",
      "sha1": "fdd3002e7d814ee47c1c1b8487c72c6bbb3a2d00"
    },
    {
      "path": "assets/fonts/Poppins-SemiBold.ttf",
      "sha1": "8a4ace9392d06bcb7f8ea2f5169b07e4c383a90d"
    }
  ]
}
